Python/running_led_testbech.vcd
$date
    Sun Jan  6 13:37:14 2019
$end
$version
    MyHDL 0.10
$end
$timescale
    1ns
$end

$scope module running_led_testbech $end
$var reg 1 ! reset $end
$var reg 1 " clock $end
$var reg 8 # led_driver $end
$scope module running_led0 $end
$var reg 1 $ clock_led $end
$var reg 1 ! reset $end
$var reg 1 " clock $end
$var reg 8 # leds $end
$scope module clock_divider0 $end
$var reg 1 $ clock_led $end
$var reg 1 ! reset $end
$var reg 1 " clock $end
$var reg 16 % counter $end
$upscope $end
$scope module shifting_register0 $end
$var reg 1 ! reset $end
$var reg 8 # reg $end
$var reg 1 $ clock $end
$upscope $end
$upscope $end
$upscope $end

$enddefinitions $end
$dumpvars
0!
0"
b00000001 #
0$
b0000000000000000 %
$end
1!
#10
1"
b0000000000000001 %
#11
#20
0"
#30
1"
b0000000000000010 %
#31
#40
0"
#50
1"
b0000000000000000 %
1$
b00000010 #
#51
#60
0"
#70
1"
b0000000000000001 %
#71
#80
0"
#90
1"
b0000000000000010 %
#91
#100
0"
#110
1"
b0000000000000000 %
0$
#111
#120
0"
#130
1"
b0000000000000001 %
#131
#140
0"
#150
1"
b0000000000000010 %
#151
#160
0"
#170
1"
b0000000000000000 %
1$
b00000100 #
#171
#180
0"
#190
1"
b0000000000000001 %
#191
#200
0"
#210
1"
b0000000000000010 %
#211
#220
0"
#230
1"
b0000000000000000 %
0$
#231
#240
0"
#250
1"
b0000000000000001 %
#251
#260
0"
#270
1"
b0000000000000010 %
#271
#280
0"
#290
1"
b0000000000000000 %
1$
b00001000 #
#291
#300
0"
#310
1"
b0000000000000001 %
#311
#320
0"
#330
1"
b0000000000000010 %
#331
#340
0"
#350
1"
b0000000000000000 %
0$
#351
#360
0"
#370
1"
b0000000000000001 %
#371
#380
0"
#390
1"
b0000000000000010 %
#391
#400
0"
#410
1"
b0000000000000000 %
1$
b00010000 #
#411
#420
0"
#430
1"
b0000000000000001 %
#431
#440
0"
#450
1"
b0000000000000010 %
#451
#460
0"
#470
1"
b0000000000000000 %
0$
#471
#480
0"
#490
1"
b0000000000000001 %
#491
#500
0"
#510
1"
b0000000000000010 %
#511
#520
0"
#530
1"
b0000000000000000 %
1$
b00100000 #
#531
#540
0"
#550
1"
b0000000000000001 %
#551
#560
0"
#570
1"
b0000000000000010 %
#571
#580
0"
#590
1"
b0000000000000000 %
0$
#591
#600
0"
#610
1"
b0000000000000001 %
#611
#620
0"
#630
1"
b0000000000000010 %
#631
#640
0"
#650
1"
b0000000000000000 %
1$
b01000000 #
#651
#660
0"
#670
1"
b0000000000000001 %
#671
#680
0"
#690
1"
b0000000000000010 %
#691
#700
0"
#710
1"
b0000000000000000 %
0$
#711
#720
0"
#730
1"
b0000000000000001 %
#731
#740
0"
#750
1"
b0000000000000010 %
#751
#760
0"
#770
1"
b0000000000000000 %
1$
b10000000 #
#771
#780
0"
#790
1"
b0000000000000001 %
#791
#800
0"
#810
1"
b0000000000000010 %
#811
#820
0"
#830
1"
b0000000000000000 %
0$
#831
#840
0"
#850
1"
b0000000000000001 %
#851
#860
0"
#870
1"
b0000000000000010 %
#871
#880
0"
#890
1"
b0000000000000000 %
1$
b00000001 #
#891
#900
0"
#910
1"
b0000000000000001 %
#911
#920
0"
#930
1"
b0000000000000010 %
#931
#940
0"
#950
1"
b0000000000000000 %
0$
#951
#960
0"
#970
1"
b0000000000000001 %
#971
#980
0"
#990
1"
b0000000000000010 %
#991
#1000
0"
#1010
1"
b0000000000000000 %
1$
b00000010 #
#1011
#1020
0"
#1030
1"
b0000000000000001 %
#1031
#1040
0"
#1050
1"
b0000000000000010 %
#1051
#1060
0"
#1070
1"
b0000000000000000 %
0$
#1071
#1080
0"
#1090
1"
b0000000000000001 %
#1091
#1100
0"
#1110
1"
b0000000000000010 %
#1111
#1120
0"
#1130
1"
b0000000000000000 %
1$
b00000100 #
#1131
#1140
0"
#1150
1"
b0000000000000001 %
#1151
#1160
0"
#1170
1"
b0000000000000010 %
#1171
#1180
0"
#1190
1"
b0000000000000000 %
0$
#1191
#1200
0"
#1210
1"
b0000000000000001 %
#1211
#1220
0"
#1230
1"
b0000000000000010 %
#1231
#1240
0"
#1250
1"
b0000000000000000 %
1$
b00001000 #
#1251
#1260
0"
#1270
1"
b0000000000000001 %
#1271
#1280
0"
#1290
1"
b0000000000000010 %
#1291
#1300
0"
#1310
1"
b0000000000000000 %
0$
#1311
#1320
0"
#1330
1"
b0000000000000001 %
#1331
#1340
0"
#1350
1"
b0000000000000010 %
#1351
#1360
0"
#1370
1"
b0000000000000000 %
1$
b00010000 #
#1371
#1380
0"
#1390
1"
b0000000000000001 %
#1391
#1400
0"
#1410
1"
b0000000000000010 %
#1411
#1420
0"
#1430
1"
b0000000000000000 %
0$
#1431
#1440
0"
#1450
1"
b0000000000000001 %
#1451
#1460
0"
#1470
1"
b0000000000000010 %
#1471
#1480
0"
#1490
1"
b0000000000000000 %
1$
b00100000 #
#1491
#1500
0"
#1510
1"
b0000000000000001 %
#1511
#1520
0"
#1530
1"
b0000000000000010 %
#1531
#1540
0"
#1550
1"
b0000000000000000 %
0$
#1551
#1560
0"
#1570
1"
b0000000000000001 %
#1571
#1580
0"
#1590
1"
b0000000000000010 %
#1591
#1600
0"
#1610
1"
b0000000000000000 %
1$
b01000000 #
#1611
#1620
0"
#1630
1"
b0000000000000001 %
#1631
#1640
0"
#1650
1"
b0000000000000010 %
#1651
#1660
0"
#1670
1"
b0000000000000000 %
0$
#1671
#1680
0"
#1690
1"
b0000000000000001 %
#1691
#1700
0"
#1710
1"
b0000000000000010 %
#1711
#1720
0"
#1730
1"
b0000000000000000 %
1$
b10000000 #
#1731
#1740
0"
#1750
1"
b0000000000000001 %
#1751
#1760
0"
#1770
1"
b0000000000000010 %
#1771
#1780
0"
#1790
1"
b0000000000000000 %
0$
#1791
#1800
0"
#1810
1"
b0000000000000001 %
#1811
#1820
0"
#1830
1"
b0000000000000010 %
#1831
#1840
0"
#1850
1"
b0000000000000000 %
1$
b00000001 #
#1851
#1860
0"
#1870
1"
b0000000000000001 %
#1871
#1880
0"
#1890
1"
b0000000000000010 %
#1891
#1900
0"
#1910
1"
b0000000000000000 %
0$
#1911
#1920
0"
#1930
1"
b0000000000000001 %
#1931
#1940
0"
#1950
1"
b0000000000000010 %
#1951
#1960
0"
#1970
1"
b0000000000000000 %
1$
b00000010 #
#1971
#1980
0"
#1990
1"
b0000000000000001 %
