Python/shifting_register_testbech.vcd
$date
    Sun Jan  6 18:51:38 2019
$end
$version
    MyHDL 0.10
$end
$timescale
    1ns
$end

$scope module shifting_register_testbech $end
$var reg 1 ! clock $end
$var reg 8 " led_driver $end
$var reg 1 # reset $end
$scope module shifting_register0 $end
$var reg 1 ! clock $end
$var reg 8 " led_driver $end
$var reg 1 # reset $end
$var reg 8 $ reg $end
$upscope $end
$upscope $end

$enddefinitions $end
$dumpvars
0!
b00000001 "
0#
b00000001 $
$end
1#
#10
1!
b00000010 $
b11111110 "
#11
#20
0!
#30
1!
b00000100 $
b11111101 "
#31
#40
0!
#50
1!
b00001000 $
b11111011 "
#51
#60
0!
#70
1!
b00010000 $
b11110111 "
#71
#80
0!
#90
1!
b00100000 $
b11101111 "
#91
#100
0!
#110
1!
b01000000 $
b11011111 "
#111
#120
0!
#130
1!
b10000000 $
b10111111 "
#131
#140
0!
#150
1!
b00000001 $
b01111111 "
#151
#160
0!
#170
1!
b00000010 $
b11111110 "
#171
#180
0!
#190
1!
b00000100 $
b11111101 "
#191
#200
0!
#210
1!
b00001000 $
b11111011 "
#211
#220
0!
#230
1!
b00010000 $
b11110111 "
#231
#240
0!
#250
1!
b00100000 $
b11101111 "
#251
#260
0!
#270
1!
b01000000 $
b11011111 "
#271
#280
0!
#290
1!
b10000000 $
b10111111 "
#291
#300
0!
#310
1!
b00000001 $
b01111111 "
#311
#320
0!
#330
1!
b00000010 $
b11111110 "
#331
#340
0!
#350
1!
b00000100 $
b11111101 "
#351
#360
0!
#370
1!
b00001000 $
b11111011 "
#371
#380
0!
#390
1!
b00010000 $
b11110111 "
#391
#400
0!
#410
1!
b00100000 $
b11101111 "
#411
#420
0!
#430
1!
b01000000 $
b11011111 "
#431
#440
0!
#450
1!
b10000000 $
b10111111 "
#451
#460
0!
#470
1!
b00000001 $
b01111111 "
#471
#480
0!
#490
1!
b00000010 $
b11111110 "
#491
#500
0!
#510
1!
b00000100 $
b11111101 "
#511
#520
0!
#530
1!
b00001000 $
b11111011 "
#531
#540
0!
#550
1!
b00010000 $
b11110111 "
#551
#560
0!
#570
1!
b00100000 $
b11101111 "
#571
#580
0!
#590
1!
b01000000 $
b11011111 "
